%YAML 1.1
%TAG !u! tag:unity3d.com,2011:
--- !u!78 &1
TagManager:
  serializedVersion: 2
  tags:
  - HQ
  - Pocisk
  - Defender
  - Atacker
  - Building
  - BuildingSite
  - TurretBuildingSite
  - Turret
  - WaveManager
  layers:
  - Default
  - TransparentFX
  - Ignore Raycast
  - 
  - Water
  - UI
  - 
  - 
  - 
  - 
  - 
  - 
  - 
  - 
  - 
  - 
  - 
  - 
  - 
  - 
  - 
  - 
  - 
  - 
  - 
  - 
  - 
  - 
  - 
  - 
  - 
  - 
  m_SortingLayers:
  - name: Default
    uniqueID: 0
    locked: 0
  - name: Komorka
    uniqueID: 3000579463
    locked: 0
  - name: Blockades
    uniqueID: 1364352861
    locked: 0
  - name: Buildings
    uniqueID: 2932043023
    locked: 0
  - name: Turrets
    uniqueID: 3266087519
    locked: 0
  - name: Atacker
    uniqueID: 3831984941
    locked: 0
  - name: Ammo
    uniqueID: 3475886419
    locked: 0
  - name: Buttons
    uniqueID: 3464800041
    locked: 0
  - name: UI
    uniqueID: 3880316237
    locked: 0
  - name: Top of the top
    uniqueID: 2745557117
    locked: 0
