%YAML 1.1
%TAG !u! tag:unity3d.com,2011:
--- !u!114 &11400000
MonoBehaviour:
  m_ObjectHideFlags: 0
  m_CorrespondingSourceObject: {fileID: 0}
  m_PrefabInstance: {fileID: 0}
  m_PrefabAsset: {fileID: 0}
  m_GameObject: {fileID: 0}
  m_Enabled: 1
  m_EditorHideFlags: 0
  m_Script: {fileID: 11500000, guid: fc557e8a44d35de4da7fe3292ea8f8b0, type: 3}
  m_Name: Fala2
  m_EditorClassIdentifier: 
  idFali: 1
  czasFali: 20
  IloscPrzeciwnikow: 15
  TypyPrzeciwnikow:
  - {fileID: 11400000, guid: 186938c0a72b7d04b987dfb92b51ac46, type: 2}
  - {fileID: 11400000, guid: eafcdbf3a9f96c248becca89e3fe2536, type: 2}
  Boss: {fileID: 0}
